…
OK, so there are at least some inconsistency here. Let’s explore
further. Firstly the counts above indicate that some SHIP\_IDs share the
same name.

``` r
tmpDF <- raw_data %>% 
  group_by(SHIPNAME) %>% 
  summarize(
    n_ids = n_distinct(SHIP_ID)
  ) %>% filter(n_ids>1)
tmpDF
```

    ## # A tibble: 21 x 2
    ##    SHIPNAME  n_ids
    ##    <chr>     <int>
    ##  1 [SAT-AIS]    19
    ##  2 ALANA         2
    ##  3 AMANDA        2
    ##  4 ARGO          2
    ##  5 AURA          2
    ##  6 BALTICA       2
    ##  7 BEDA          2
    ##  8 EKEN          2
    ##  9 FREYA         2
    ## 10 LINDA         2
    ## # … with 11 more rows
…
Working off of the common sense (but by us unverified) notion that
ship-names are likely required to be unique within each sovereign
nations ship’s registry we can attempt to use the “FLAG” variable to
unpack this a little further.

``` r
tmpDF2 <- raw_data %>% 
  group_by(SHIPNAME, FLAG) %>% 
  tally %>% 
  filter(SHIPNAME %in% tmpDF$SHIPNAME,
         !SHIPNAME %in% c("SAT AIS","[SAT-AIS]"))
 tmpDF2 
```

    ## # A tibble: 32 x 3
    ## # Groups:   SHIPNAME [19]
    ##    SHIPNAME FLAG      n
    ##    <chr>    <chr> <int>
    ##  1 ALANA    PT      552
    ##  2 ALANA    RU     8425
    ##  3 AMANDA   DK       52
    ##  4 AMANDA   SE     1126
    ##  5 ARGO     NL     3537
    ##  6 ARGO     PL     4719
    ##  7 AURA     FI     1171
    ##  8 AURA     RU     8070
    ##  9 BALTICA  FI      558
    ## 10 BALTICA  PL     2890
    ## # … with 22 more rows
…
``` r
tmpDF6 <- raw_data %>% 
  filter(SHIP_ID %in% tmpDF5$SHIP_ID) %>% 
  group_by(SHIPNAME,SHIP_ID) %>% 
  summarize() %>% 
  arrange(SHIP_ID)
```

    ## `summarise()` has grouped output by 'SHIPNAME'. You can override using the `.groups` argument.

``` r
tmpDF6
```

    ## # A tibble: 26 x 2
    ## # Groups:   SHIPNAME [26]
    ##    SHIPNAME          SHIP_ID
    ##    <chr>               <dbl>
    ##  1 BBAS               315731
    ##  2 ODYS               315731
    ##  3 .WLA-311           315950
    ##  4 WLA-311            315950
    ##  5 KAPITAN BORCHARDT  316404
    ##  6 KM ,TAN BORCHARDT  316404
    ##  7 WXA A SZCZESCIA    316482
    ##  8 WYSPA SZCZESCIA    316482
    ##  9 IVAN KRUZENSHTERN  345254
    ## 10 SAT AIS            345254
    ## # … with 16 more rows
…
  - GAZPROMNEFT WEST & VOVAN
  - ARGO & C

<!-- end list -->

``` r
raw_data %>% 
  filter( SHIP_ID%in%tmpDF6$SHIP_ID) %>% 
  group_by(SHIPNAME,SHIP_ID, FLAG) %>% 
  summarize() %>% arrange(SHIP_ID)
```

    ## `summarise()` has grouped output by 'SHIPNAME', 'SHIP_ID'. You can override using the `.groups` argument.

    ## # A tibble: 26 x 3
    ## # Groups:   SHIPNAME, SHIP_ID [26]
    ##    SHIPNAME          SHIP_ID FLAG 
    ##    <chr>               <dbl> <chr>
    ##  1 BBAS               315731 PL   
    ##  2 ODYS               315731 PL   
    ##  3 .WLA-311           315950 PL   
    ##  4 WLA-311            315950 PL   
    ##  5 KAPITAN BORCHARDT  316404 PL   
    ##  6 KM ,TAN BORCHARDT  316404 PL   
    ##  7 WXA A SZCZESCIA    316482 PL   
    ##  8 WYSPA SZCZESCIA    316482 PL   
    ##  9 IVAN KRUZENSHTERN  345254 RU   
    ## 10 SAT AIS            345254 RU   
    ## # … with 16 more rows
…
